state=
{
	id=74
	name="STATE_74"
	manpower = 820000
	
	state_category = rural
	
	
	history=
	{ 1999.1.1 = { 
			owner = BET
			remove_core_of = BET
		}
		
		victory_points = {
			3583 5
		}
		owner = CZE
		buildings = {
			infrastructure = 7
			arms_factory = 1
		}
		add_core_of = CZE

		1938.9.30 = {
			owner = GER
			controller = GER
		}
	}
	provinces= {
		421 3414 3583 6485
 	}
}
